\relax 
\providecommand\hyper@newdestlabel[2]{}
\@writefile{toc}{\contentsline {chapter}{\numberline {2}Details of the System Test Design}{3}{chapter.2}}
\@writefile{lof}{\addvspace {10\p@ }}
\@writefile{lot}{\addvspace {10\p@ }}
\@writefile{lol}{\addvspace {10\p@ }}
\newlabel{chp:details-of-the-level-test-design}{{2}{3}{Details of the System Test Design}{chapter.2}{}}
\@writefile{toc}{\contentsline {section}{\numberline {2.1}Features to be tested}{3}{section.2.1}}
\newlabel{s:details-of-the-level-test-design:features-to-be-tested}{{2.1}{3}{Features to be tested}{section.2.1}{}}
\@writefile{toc}{\contentsline {section}{\numberline {2.2}Approach refinements}{3}{section.2.2}}
\newlabel{s:details-of-the-level-test-design:approach-refinements}{{2.2}{3}{Approach refinements}{section.2.2}{}}
\@writefile{toc}{\contentsline {section}{\numberline {2.3}Test identification}{3}{section.2.3}}
\newlabel{s:details-of-the-level-test-design:test-identification}{{2.3}{3}{Test identification}{section.2.3}{}}
\@writefile{toc}{\contentsline {section}{\numberline {2.4}Feature pass/fail criteria}{3}{section.2.4}}
\newlabel{s:details-of-the-level-test-design:feature-pass-fail-criteria}{{2.4}{3}{Feature pass/fail criteria}{section.2.4}{}}
\@writefile{toc}{\contentsline {section}{\numberline {2.5}Test deliverables}{4}{section.2.5}}
\newlabel{s:details-of-the-level-test-design:test-deliverables}{{2.5}{4}{Test deliverables}{section.2.5}{}}
\@setckpt{chapters/details-of-the-level-test-design}{
\setcounter{page}{5}
\setcounter{equation}{0}
\setcounter{enumi}{1}
\setcounter{enumii}{0}
\setcounter{enumiii}{0}
\setcounter{enumiv}{0}
\setcounter{footnote}{0}
\setcounter{mpfootnote}{0}
\setcounter{part}{0}
\setcounter{chapter}{2}
\setcounter{section}{5}
\setcounter{subsection}{0}
\setcounter{subsubsection}{0}
\setcounter{paragraph}{0}
\setcounter{subparagraph}{0}
\setcounter{figure}{0}
\setcounter{table}{0}
\setcounter{lstnumber}{1}
\setcounter{Item}{1}
\setcounter{Hfootnote}{0}
\setcounter{bookmark@seq@number}{9}
\setcounter{ContinuedFloat}{0}
\setcounter{subfigure}{0}
\setcounter{subtable}{0}
\setcounter{parentequation}{0}
\setcounter{su@anzahl}{0}
\setcounter{LT@tables}{0}
\setcounter{LT@chunks}{0}
\setcounter{@pps}{0}
\setcounter{@ppsavesec}{0}
\setcounter{@ppsaveapp}{0}
\setcounter{RequirementsCounter}{0}
\setcounter{FunctionalCounter}{0}
\setcounter{TestCaseCounter}{0}
\setcounter{lstlisting}{0}
\setcounter{section@level}{1}
}
