\relax 
\providecommand\hyper@newdestlabel[2]{}
\providecommand*\new@tpo@label[2]{}
\catcode 95\active
\providecommand\HyperFirstAtBeginDocument{\AtBeginDocument}
\HyperFirstAtBeginDocument{\ifx\hyper@anchor\@undefined
\global\let\oldcontentsline\contentsline
\gdef\contentsline#1#2#3#4{\oldcontentsline{#1}{#2}{#3}}
\global\let\oldnewlabel\newlabel
\gdef\newlabel#1#2{\newlabelxx{#1}#2}
\gdef\newlabelxx#1#2#3#4#5#6{\oldnewlabel{#1}{{#2}{#3}}}
\AtEndDocument{\ifx\hyper@anchor\@undefined
\let\contentsline\oldcontentsline
\let\newlabel\oldnewlabel
\fi}
\fi}
\global\let\hyper@last\relax 
\gdef\HyperFirstAtBeginDocument#1{#1}
\providecommand\HyField@AuxAddToFields[1]{}
\providecommand\HyField@AuxAddToCoFields[2]{}
\providecommand\@newglossary[4]{}
\@newglossary{main}{glg}{gls}{glo}
\providecommand\@glsorder[1]{}
\providecommand\@istfilename[1]{}
\@istfilename{system-test-design.xdy}
\@glsorder{word}
\select@language{english}
\@writefile{toc}{\select@language{english}}
\@writefile{lof}{\select@language{english}}
\@writefile{lot}{\select@language{english}}
\@input{chapters/revision-history.aux}
\@writefile{toc}{\contentsline {chapter}{\numberline {1}Introduction}{2}{chapter.1}}
\@writefile{lof}{\addvspace {10\p@ }}
\@writefile{lot}{\addvspace {10\p@ }}
\@writefile{lol}{\addvspace {10\p@ }}
\newlabel{chp:introduction}{{1}{2}{Introduction}{chapter.1}{}}
\@writefile{toc}{\contentsline {section}{\numberline {1.1}Scope}{2}{section.1.1}}
\newlabel{s:introduction:scope}{{1.1}{2}{Scope}{section.1.1}{}}
\@writefile{toc}{\contentsline {section}{\numberline {1.2}References}{2}{section.1.2}}
\newlabel{s:introduction:references}{{1.2}{2}{References}{section.1.2}{}}
\@writefile{toc}{\contentsline {chapter}{\numberline {2}Details of the System Test Design}{3}{chapter.2}}
\@writefile{lof}{\addvspace {10\p@ }}
\@writefile{lot}{\addvspace {10\p@ }}
\@writefile{lol}{\addvspace {10\p@ }}
\newlabel{chp:details-of-the-level-test-design}{{2}{3}{Details of the System Test Design}{chapter.2}{}}
\@writefile{toc}{\contentsline {section}{\numberline {2.1}Features to be tested}{3}{section.2.1}}
\newlabel{s:details-of-the-level-test-design:features-to-be-tested}{{2.1}{3}{Features to be tested}{section.2.1}{}}
\@writefile{toc}{\contentsline {section}{\numberline {2.2}Approach refinements}{3}{section.2.2}}
\newlabel{s:details-of-the-level-test-design:approach-refinements}{{2.2}{3}{Approach refinements}{section.2.2}{}}
\@writefile{toc}{\contentsline {section}{\numberline {2.3}Test identification}{3}{section.2.3}}
\newlabel{s:details-of-the-level-test-design:test-identification}{{2.3}{3}{Test identification}{section.2.3}{}}
\@writefile{toc}{\contentsline {section}{\numberline {2.4}Feature pass/fail criteria}{3}{section.2.4}}
\newlabel{s:details-of-the-level-test-design:feature-pass-fail-criteria}{{2.4}{3}{Feature pass/fail criteria}{section.2.4}{}}
\@writefile{toc}{\contentsline {section}{\numberline {2.5}Test deliverables}{3}{section.2.5}}
\newlabel{s:details-of-the-level-test-design:test-deliverables}{{2.5}{3}{Test deliverables}{section.2.5}{}}
\global\@namedef{scr@dte@chapter@lastmaxnumwidth}{10.84047pt}
\global\@namedef{scr@dte@section@lastmaxnumwidth}{18.37163pt}
