\select@language {english}
\contentsline {chapter}{\numberline {1}Introduction}{2}{chapter.1}
\contentsline {section}{\numberline {1.1}Scope}{2}{section.1.1}
\contentsline {section}{\numberline {1.2}References}{2}{section.1.2}
\contentsline {chapter}{\numberline {2}Details of the System Test Design}{3}{chapter.2}
\contentsline {section}{\numberline {2.1}Features to be tested}{3}{section.2.1}
\contentsline {section}{\numberline {2.2}Approach refinements}{3}{section.2.2}
\contentsline {section}{\numberline {2.3}Test identification}{3}{section.2.3}
\contentsline {section}{\numberline {2.4}Feature pass/fail criteria}{3}{section.2.4}
\contentsline {section}{\numberline {2.5}Test deliverables}{3}{section.2.5}
